2741	1556
217	9432
5	9872
3596	2076
7776	9595
8453	8914
6097	8237
3079	5686
2385	88
4492	7791
8178	7108
4255	29
3707	430
9128	3787
6329	2525
7746	4482
1328	5063
1056	7447
4417	6223
122	6646
8112	2238
1244	1127
579	6702
5329	2684
1743	7451
5169	9778
1564	6569
8814	1267
7033	1349
7970	5818
511	8925
768	5779
3010	3303
1756	3613
8904	4735
1722	2666
3503	7170
7525	1436
5734	2020
4833	4185
6451	6820
1613	1123
8091	8230
3735	895
6952	608
49	3262
673	2375
6956	3616
9757	6251
796	6245
1484	7897
6640	6321
7307	7470
1976	3020
1858	6363
6305	3502
7989	5569
9512	4562
3761	7979
4567	8016
5076	5246
4295	7030
9715	8784
9598	9416
2770	7459
1602	3727
23160	49822
57783	45332
1217	42510
64264	53616
70528	22830
54512	30523
27296	85005
21713	11636
39097	86353
79303	63795
79415	580
12198	79028
96983	48540
9876	2807
75355	61506
3642	19251
9517	20571
46259	99464
28568	86722
31109	6580
30526	47647
78837	9044
94298	48847
80804	23451
70196	59498
77917	818
85286	71836
83114	55248
93050	71316
80709	81380
14279	93323
49450	23849
49220	43163
15335	62760
14573	51532
87681	39139
39984	94581
10738	3853
50863	63806
1091	75220
36967	77856
70184	75439
47353	29161
96677	9392
45051	86867
58620	96251
7287	563
91551	70046
53227	49802
26156	65286
37493	53880
33825	96905
12995	57309
88639	8925
98989	98031
74659	29168
3711	82151
70000	41389
80518	35792
28870	21807
79518	52650
39356	31744
59358	20113
1100	63297
32040	49759
28542	39789
46165	13552
68999	55057
39124	11299
47947	85384
8204	49887
5980	97461
60503	8141
43851	92099
54476	9149
73650	49748
74096	88880
76427	3328
72053	63308
22598	60075
5829	14608
28712	9903
42799	35602
84470	11901
79233	54870
59830	2190
49948	99394
14142	66396
3343	51268
47310	78198
74487	39086
70071	60212
97374	59676
61860	45250
1556	26356
75682	46155
89436	8054
61170	59000
95952	74496
61316	22753
87809	79199
77250	92999
8403	4394
73843	61814
73584	70194
59220	21275
61891	96176
79473	19663
61242	70995
66690	30435
9323	9516
3447	7137
7668	5156
5878	7725
1112	4941
5860	273
3689	6211
4443	3955
4428	4601
2737	9902
3051	1202
9874	6829
6172	5824
7874	8475
1100	6802
352	7943
5871	8888
2559	8525
5486	1760
7825	6058
6667	5178
3684	6252
3381	2177
47	3967
1989	937
5444	2480
9817	7779
1676	2874
9023	5359
1810	5087
8914	3411
3589	8534
303	2160
1551	3430
