108828 488575 449
253618 309032 407
241290 309349 407
443557 459463 387
307910 408896 441
325369 479002 449
178627 419705 449
157623 202764 370
61173 269097 443
475525 487405 413
332999 371239 441
341869 489435 449
447971 472611 444
107220 306131 443
214452 224527 386
275855 348250 441
207769 279745 443
464652 477771 413
195217 221604 386
106413 127961 349
307520 488418 449
292722 359705 441
296151 431542 449
15656 296426 443
406080 477110 449
400058 427478 449
117034 238752 443
168738 313205 443
481040 490576 382
415182 499383 444
69080 162126 383
418491 477305 444
111874 458434 449
89473 281657 443
182669 195439 360
235465 270998 407
231349 446661 449
491569 492513 320
14799 443084 449
254729 467834 449
482680 495528 426
94558 451217 449
236154 480046 449
155908 476916 449
302306 416832 449
380452 422231 449
35705 42500 306
372322 460753 449
334277 397725 441
112158 165031 383
491731 492267 320
111423 246839 443
188869 214319 373
417295 492640 444
238313 337050 407
62273 448024 449
367403 370463 392
8611 46616 324
287625 299100 389
381255 410441 449
455188 465643 444
426323 427099 356
476639 488733 413
394600 448251 449
173532 436475 449
363640 402029 436
188225 462535 449
452215 494247 444
375795 384709 423
187817 492563 449
181499 353777 443
261837 402752 441
348799 462579 449
260252 306312 407
370801 477438 449
348783 498605 449
152982 487602 449
26420 131899 354
463567 493031 426
350430 409581 436
440138 448787 369
267189 424309 449
183203 250347 443
125406 474355 449
140855 420813 449
331946 418212 449
339670 442870 449
67397 178218 383
266250 431418 449
214669 286842 443
96596 203571 383
52933 462186 449
416672 433313 418
277460 417044 449
24117 104559 351
366878 496065 449
234128 477943 449
439878 470089 444
120574 496243 449
464076 466186 369
221183 347373 443
429028 453445 400
413609 454344 418
312379 489368 449
208054 498248 449
476513 493803 426
405367 407134 405
129275 360062 443
498033 498305 351
163463 446484 449
457375 465085 444
484758 486169 338
351880 435156 449
173160 260107 443
330223 376730 441
121654 436319 449
305007 378876 441
497866 498027 289
240156 429124 449
85815 483562 449
361067 384808 423
172963 208173 373
380886 456416 449
339651 372637 441
430921 484813 444
143203 170598 383
190712 297257 443
109653 404778 443
168565 435006 449
276907 340904 389
423216 459426 418
132192 380634 443
131388 405636 443
298669 350059 441
378315 434484 449
239077 328122 407
118703 286827 443
473012 495071 426
257764 304236 407
474438 479486 382
128940 400023 443
22830 319823 443
216261 320988 443
113112 415877 449
489333 492153 320
139331 287259 443
490330 497374 426
144729 485010 449
295805 331645 384
119803 422347 449
130728 444437 449
21602 463495 449
275193 438615 449
387961 390254 436
83242 399189 443
4741 190943 383
312729 475345 449
199186 218588 386
134604 194828 383
12177 187564 383
195587 274859 443
364189 382182 423
315166 420370 449
394721 447714 449
252843 333183 407
350972 375938 410
186481 238510 443
410248 471780 444
273287 354780 441
497500 499414 351
205945 248606 443
58231 220181 386
435140 453405 400
315646 379223 441
457184 494744 444
98568 135169 354
99080 444422 449
368235 420061 449
247191 387657 441
105912 242637 443
81893 300064 443
394515 404438 405
439338 469217 444
187665 325683 443
262714 294746 407
386691 440430 449
284731 371051 441
44770 193970 383
413452 415417 374
328740 347232 441
225724 309567 443
55045 314813 443
18638 95799 351
363349 379194 423
270140 359820 441
459673 493430 444
480002 481192 413
305340 347974 441
363559 473756 449
161251 171110 352
459777 469178 444
114899 207494 383
271752 440961 449
220495 405022 443
101642 489123 449
72940 484892 449
435227 464160 444
444196 453153 387
56201 339730 443
293646 396929 441
72263 319435 443
242706 312375 407
456621 498245 444
22137 439726 449
66218 110180 354
319933 331689 384
353042 440874 449
250455 313547 407
108052 151262 375
74132 188518 383
223114 280868 443
351099 400238 436
104580 479781 449
351052 489590 449
124644 183081 383
379035 491656 449
36554 375622 443
313636 485616 449
5927 344461 443
220664 390707 443
287189 460830 449
460297 498186 444
321921 374863 441
98843 167248 383
472577 495458 426
52103 285050 443
273707 499908 449
458746 490280 444
248053 302060 407
343679 467308 449
3724 99585 351
326054 384381 441
348538 414012 449
436007 484163 444
440580 460614 387
12108 250296 443
412837 491822 444
451120 492843 444
9828 209627 383
