102141 612019
67177 344634
707055 271775
773672 855815
403657 247907
394035 614443
361013 813002
761516 590255
387550 623600
200124 913650
734744 886499
387154 671488
972664 772818
233408 517630
653277 389266
509208 148953
647085 222554
654815 630515
726560 99189
367662 364635
900285 591738
882080 403354
877390 533936
339159 4216
895326 50961
914407 859239
288009 696584
493353 558787
802858 415294
61921 446328
12704 547451
899563 405886
25575 420418
132060 106935
300730 692095
264844 99012
373441 608980
306600 473324
415844 542272
584345 622350
545547 576796
672238 109216
186577 730684
321082 804234
502158 317095
11015 711331
179275 970409
163858 890081
174164 469640
744639 557413
582456 420349
853439 546520
672975 838218
626200 674795
111841 87280
69838 38119
613553 702108
64190 464534
534073 146159
55018 711070
261088 986713
373637 651633
475443 506255
458775 952888
587413 315698
570376 371706
471437 866868
948481 618039
627469 512561
24175 376602
941799 77112
422463 903474
691665 542152
827847 5319
767261 800224
11953 293129
838365 594498
440240 185277
508265 437432
509335 394205
712410 505071
493390 275828
169856 876822
995474 486008
56454 73503
867849 919281
91784 79516
799911 249552
221655 435401
590113 906002
887058 8252
549973 853330
609651 233456
391906 447347
230980 387033
333647 645805
491095 566161
136829 932739
193056 548655
690254 891949
404400 355264
71515 274197
197273 688792
329048 365076
806878 185219
354726 994865
119746 823771
785219 160482
684101 104668
133511 955280
383055 461498
185394 962570
648258 994338
544097 599445
361720 575168
773484 600759
187578 188569
482119 252204
57802 857449
433403 256423
413342 181846
702632 136492
252572 9563
514547 529260
998933 231561
718604 741510
192259 840722
393667 477795
822138 333384
675518 844001
188960 405658
932342 144274
225095 857841
936090 60404
381259 408667
245486 222186
522588 816229
187426 378574
965568 32968
925075 703913
993172 240424
424301 238750
643684 786057
630073 893037
144901 40018
68436 477442
210389 468277
914893 393169
694681 756685
319726 426331
444484 470680
804313 236441
942230 694132
51063 743361
178583 844068
790277 291065
601837 879515
623476 537434
721653 285953
301755 19559
192351 454117
280700 513769
582820 807131
264201 675573
332317 977404
913663 826922
367646 913104
391090 512011
202773 559890
886700 637965
692638 266519
273687 312600
438170 223783
433281 365441
835366 165666
800561 303167
991824 225595
166628 622146
320577 769733
613476 597724
402289 668161
470909 150851
42940 348176
830730 221037
121954 213840
107581 559019
972658 729376
697690 857404
568892 34386
582335 374216
85519 39500
93824 809791
836555 749597
521183 542648
683024 763758
508615 938792
334170 196649
944726 649746
813032 354321
30101 460095
142331 182083
260800 702301
101312 236373
550721 168878
835204 803508
639919 651694
718929 531232
128222 157486
65209 849180
299905 180633
74020 25640
877576 692241
916131 697092
157760 487118
321134 435525
722586 274903
453301 672649
675199 239321
248414 910965
58807 887756
360 449827
346762 490953
436822 993011
774151 857232
128400 965948
601253 654697
8722 780630
6237 156016
584491 254652
76692 112455
598365 632510
363126 879644
56232 726067
772348 768664
396180 493104
202114 250356
168860 559039
832843 43822
436129 316026
253364 548088
246352 476912
833407 218935
720453 191393
71809 55510
925440 616973
203578 519801
206317 401243
672068 563054
390076 858652
640738 20258
