267729 689699 509
878615 988993 507
697090 183817 509
939496 347723 525
425199 298513 449
389082 47063 443
456468 17804 449
422586 474446 444
985760 14269 525
226767 31183 386
296348 362201 441
493134 71830 449
542876 311729 470
934610 355214 525
213179 256197 443
861734 898774 445
547776 177564 470
96128 133953 354
767977 786292 437
359337 963155 525
156908 209785 373
182175 772643 509
77624 43828 351
119836 766862 509
105360 611884 470
25696 373845 443
324735 395480 441
964130 105782 525
105694 736418 509
292284 731546 509
836619 177918 509
231683 185190 443
25042 764486 509
937383 231020 525
851832 124509 525
98415 230891 443
486409 602372 470
354598 789247 509
470521 430174 444
758902 736485 424
90499 877315 525
823850 748160 468
371178 821734 509
80146 8141 351
397549 243644 441
869993 50527 525
776250 520075 509
12920 632261 509
206640 996991 525
970476 5631 525
233779 752508 509
262570 850230 525
546866 56072 470
555686 941773 525
621414 444281 470
866134 82177 525
171744 989475 525
285572 104956 443
999434 698012 525
387515 334479 441
83576 212520 383
393965 336338 441
61185 809951 509
438114 491798 444
130606 753583 509
793138 23127 509
789013 618297 509
697997 823565 504
599348 162296 470
262302 645458 509
769659 436895 509
802227 392317 509
412836 477773 444
286822 819313 509
574996 551772 421
56926 494350 449
370833 99476 443
137912 927059 525
386052 661430 509
995936 844156 507
473215 589693 470
718415 802378 468
797923 62660 509
838785 206469 525
808490 574824 509
744093 521873 509
98452 888377 525
322060 568113 470
994247 881560 507
77521 427043 449
458771 273771 449
861239 182356 525
525054 40310 470
679533 923353 525
141915 793987 509
238466 682116 509
867199 211230 525
477161 373515 449
69598 192273 383
803715 871710 525
359857 218068 443
630602 822179 504
324683 210160 443
746424 362792 509
551091 292846 470
224352 649285 509
215195 838787 525
933353 238340 525
16371 971962 525
516844 141137 470
358857 857463 525
154474 871487 525
553302 285121 470
901993 675476 525
49686 718778 509
571416 13570 470
244446 882612 525
664126 172674 509
244893 237445 368
814385 620044 509
328730 129752 443
146221 329262 443
161439 659914 509
93620 279516 443
611714 750143 509
509244 128001 449
579391 106401 470
351779 189319 443
791737 284215 509
868153 262470 525
469338 295558 449
906271 657777 525
598644 309664 470
693949 806114 504
541085 919045 525
464277 939948 525
171971 859181 525
382717 106762 443
847944 941503 507
979500 672629 525
130874 109527 349
799659 221761 509
816031 99385 509
330615 966006 525
569745 721623 509
342390 488731 449
890542 794761 525
759096 910885 525
203513 159290 370
149553 464523 449
614517 373581 470
385071 420641 449
296950 991361 525
557150 167042 470
818267 395322 509
316374 997645 525
93135 29341 351
339109 202796 443
430372 695165 509
406511 605062 470
212559 955983 525
558776 27282 470
176165 493605 449
183169 500196 449
299486 46774 443
268587 762106 509
819716 101528 509
328292 592401 470
669577 923260 525
982443 924173 507
727829 524852 509
164589 803701 509
813710 130693 509
76391 16511 340
871029 11089 525
229912 516031 470
264674 997602 525
846886 216409 525
951807 29423 525
940444 204430 525
489620 257096 449
619521 274070 470
564810 472771 470
697053 518580 509
295373 45511 443
650867 628264 416
773058 883529 525
265532 955096 525
309193 417278 449
946949 5014 525
632666 582693 509
163647 468989 449
464833 588819 470
120010 141636 344
962218 746155 525
842537 562468 525
475394 285594 449
273995 464610 449
177124 150282 383
107611 589877 470
560420 298705 470
180053 105090 383
717537 283774 509
375547 287560 441
354434 7135 443
910974 817032 525
384236 531204 470
497500 728481 509
509534 510527 364
320718 166158 443
