196548 999443
654242 918612
754036 182241
307807 59617
464532 1415
561553 220484
644018 689946
174551 489607
25941 371851
299099 732246
87842 367376
775609 157650
110402 525230
21889 721845
240376 296160
259460 368206
370245 185867
462821 78152
474054 69823
944879 108996
632578 122651
272978 285421
470799 617686
287340 107875
739812 235344
902817 928854
527692 321617
792918 707890
763051 135160
352817 722006
280341 198899
266129 127349
185455 546926
295098 432443
845575 496303
912340 233294
274832 913239
894166 749289
572547 789977
472865 819688
208357 274673
919608 514118
354038 796250
270905 871015
212856 685127
565797 612371
190753 280884
181309 525561
788891 386382
159002 109910
594121 213989
556810 595255
196352 590777
720537 891322
133066 913541
756295 460930
896348 991948
241791 922209
492688 79924
21049 367843
87485 529930
376888 89811
628944 479040
382175 401155
628762 457086
453597 340647
345638 868454
553002 96925
334506 593537
713084 2491
839557 267721
809018 254033
762332 414587
528708 4608
843833 267339
332796 641328
186698 441614
296206 464050
266119 210707
191397 257428
119077 147272
586917 972919
415573 228373
71384 463113
389787 443065
602517 758151
143450 485203
335290 163592
332934 169879
229509 68474
685496 660889
908139 57687
972090 211002
951383 450631
576042 20772
733527 586333
327907 356727
217874 754814
433829 601327
434185 521491
706653 341226
27443 472954
189454 345010
433305 183561
517836 741461
604704 721309
533450 636546
774534 185709
936828 63024
242399 192979
490117 722539
205023 797422
404956 260833
425486 468250
494159 293827
992213 875483
203086 996822
386239 134236
610031 69244
766160 210756
148086 498111
960790 722534
570097 304947
87479 525938
586686 858645
225782 156596
48555 173501
972124 149267
73135 16674
451003 963302
566695 375539
62864 255900
636861 122246
961297 947942
130406 23511
240666 123345
263542 452929
695146 836746
828405 92346
279347 329081
103749 241170
464717 573788
935228 57140
639091 189711
542902 277768
630026 502333
958708 72040
627767 254865
546208 651203
734190 517970
142481 303709
406699 136688
314695 798360
674356 138513
628378 887373
761357 656026
746900 475624
273918 134556
818361 757987
217808 972926
586974 829783
939053 849491
836483 953422
357810 193837
131444 523644
804754 184112
976113 364131
442014 663432
200599 405449
670363 998281
294013 535997
497809 889913
957702 876623
255973 323128
454860 523946
722420 277262
307669 302586
338777 921138
553827 633438
101190 177724
755684 170462
966408 827432
849326 53035
402203 54117
810696 489568
878054 228708
29497 419431
489745 371578
96519 469386
844209 675747
908709 284776
238942 495447
73786 52086
811795 733196
753266 578719
196102 387348
21779 952631
583273 44027
516644 220364
553409 391831
247262 758137
297431 445814
63966 863585
63092 423260
839614 554199
165563 705607
257261 271615
666651 820197
706834 355881
144692 620882
427374 39794
834729 821784
475506 417130
479796 286141
83054 552366
349756 5377
896736 568025
641025 400834
72117 557707
303677 847070
647918 500796
934239 815255
848545 729431
553769 243559
126824 307585
449617 55664
681652 71999
