389653 194593 443
839772 861960 419
42621 212052 383
227301 142687 386
180264 853467 525
497557 368439 449
647977 324325 509
402193 154205 443
33396 507709 449
338418 410696 449
259699 619653 470
184610 713549 509
580536 641789 509
184470 975517 525
39341 823463 509
588280 656792 509
133128 773017 509
372411 951879 525
66261 30397 340
842533 140867 525
68758 220325 386
389071 959023 525
353229 29673 443
412744 993664 525
307029 798364 509
153259 640075 509
286925 396683 441
148990 733746 509
940668 733217 525
957724 339719 525
148889 839271 525
725266 898830 525
552573 176064 470
856155 537882 525
805635 961115 525
151053 262503 443
975923 16448 525
55051 256578 443
542865 65609 470
109411 305713 443
133611 249066 443
13645 522056 470
764544 432584 509
974595 781685 525
532257 746854 509
164884 99439 383
633285 272259 509
863999 961624 507
376373 301502 441
796860 175501 509
644013 908870 525
768867 109350 509
661801 346183 509
286477 202992 443
164235 956225 525
757022 846643 525
799679 977654 525
638307 144678 509
94918 391496 443
107669 579104 470
765028 911110 525
920484 826772 525
99589 175494 383
765361 889607 525
378368 382329 379
355578 774478 509
368901 964742 525
237572 135001 443
331336 252229 407
599883 656748 509
447911 324942 449
89305 914507 525
884320 211255 525
947608 927433 507
227525 805853 509
137910 551862 470
210748 80744 383
648636 595128 509
524003 909869 525
726839 602291 509
913157 50896 525
628411 333281 509
453510 625195 470
233875 812399 509
772736 375193 509
938325 879821 476
759579 946668 525
844918 543644 525
593343 451741 470
271505 6462 443
682942 978297 525
796654 181694 509
607452 51282 470
827925 826838 419
890322 606573 525
195443 637170 509
734100 966585 525
162679 77123 383
628260 578539 509
724059 783608 468
936859 670824 525
974577 359666 525
555167 449047 470
229623 931849 525
10599 789634 509
999923 621917 525
84255 725441 509
757041 816188 468
620080 516348 452
143441 69889 375
285834 341650 389
712216 835375 468
354190 641822 509
250058 705459 509
940066 102343 525
672278 795906 504
774836 463126 509
755767 157559 509
693717 818154 504
483479 598244 470
37611 463558 449
94277 929896 525
375115 16059 443
750406 418906 509
700579 443446 509
508824 519818 470
331679 155127 443
78305 9833 351
967474 931998 507
119396 951859 525
136681 112284 349
753902 531955 509
960182 337994 525
478667 226489 449
363459 571534 470
623115 234151 470
184601 961472 525
432163 287688 449
259028 756611 509
299690 785586 509
29380 56201 340
982148 416302 525
354730 515128 470
325122 869276 525
344447 414915 449
285744 930009 525
914270 344326 525
869538 477630 525
871234 738572 525
350056 445401 449
336991 696624 509
30516 834077 509
838932 985800 507
978384 276467 525
521968 793152 509
902428 962613 507
245665 611401 470
414399 486232 444
99268 887384 525
570599 571486 297
365055 813860 509
812475 985993 525
759310 9304 509
585480 272242 470
288924 380683 441
743162 827453 468
479060 882073 525
705683 594839 509
193309 797928 509
549751 374604 470
620312 895423 525
428929 423490 418
656380 952348 525
925787 422697 525
166255 694692 509
867701 991437 507
363064 92741 443
817638 451769 509
49021 458995 449
682369 141138 509
228257 663779 509
118373 748558 509
837054 910930 525
437576 55339 449
429941 623984 470
137553 897507 525
392441 565961 470
559121 32875 470
929897 326480 525
773937 160490 509
764826 398347 509
574510 81811 470
334033 773910 509
706398 698729 504
359868 305877 441
29381 49494 324
551187 796610 509
904170 151403 525
693467 307179 509
957010 571210 525
618834 975100 525
827012 22230 509
556108 764649 509
276156 263339 407
738131 244457 509
338851 338879 154
19179 498249 449
28538 431236 449
9034 122819 354
157385 551623 470
222815 973989 525
582309 241566 470
436745 158586 449
380499 522913 470
629745 329637 509
364192 42740 443
743881 966765 525
211095 249986 443
508716 777204 509
69854 355630 443
148667 135645 375
777363 56716 509
646498 289285 509
940201 872118 507
165609 941877 525
234302 931384 525
184937 466387 449
93453 255471 443
196908 348119 443
53489 293268 443
28776 426508 449
933032 268849 525
119237 144321 375
181619 916387 525
102140 548056 470
821355 939944 525
533567 830743 509
30609 691328 509
571189 653058 509
421831 969903 525
289988 204466 443
53876 860967 525
900591 176947 525
185419 252732 443
226472 384467 443
828745 303261 509
212452 168571 373
376973 254245 441
31961 444772 449
231414 930904 525
