41388 456904 449
361931 338625 441
413700 309624 449
519569 668288 509
143588 953353 525
595771 285662 470
596660 199258 470
742525 260901 509
485878 305216 449
32532 263188 443
99715 763659 509
999399 67553 525
748129 481545 509
943241 965953 414
27008 943582 525
428792 601975 470
505367 661023 509
493154 57205 449
979697 898709 507
838110 44193 525
976890 317413 525
837280 733079 468
459247 479491 444
160829 715227 509
56914 286474 443
647763 595946 509
447732 580000 470
784461 783388 331
121872 344168 443
96027 313373 443
659666 534748 509
957381 157017 525
641825 445363 509
682849 813631 504
732423 565075 509
14403 209564 383
49642 65749 340
23393 656458 509
968778 9148 525
933848 408319 525
844103 822835 525
92539 563331 470
699139 319008 509
101835 170887 383
454548 782232 509
25295 613351 470
255524 922100 525
259727 813687 509
786274 191862 509
807812 669935 504
444993 200514 449
768596 972428 525
981872 671726 525
508419 487147 426
457490 710831 509
648680 651709 385
132421 668250 509
135288 860668 525
675704 167369 509
353666 827836 509
422961 978446 525
619646 858957 525
474733 366989 449
47348 820361 509
692177 259559 509
905161 501273 525
759813 176205 509
541929 340365 470
607994 776869 509
481776 337662 449
388704 226882 443
861579 63791 525
365956 837367 509
37675 199679 383
869949 795318 525
294904 190967 443
10084 216897 386
284662 519345 470
199691 300064 443
556680 267345 470
873390 800903 525
977795 314062 525
377141 213520 443
761674 490588 509
210118 826196 509
938288 246084 525
260894 12922 443
154320 676443 509
603825 646029 509
896458 815301 525
421167 460780 418
173310 954267 525
930061 131152 525
459913 627430 509
943078 101893 525
398866 981812 525
654065 697784 442
400908 311112 441
349109 30559 443
305449 138146 443
918933 585433 525
185209 833105 509
897383 74260 525
97323 511785 449
460006 745857 509
232482 123773 443
340025 601245 470
647480 15407 509
260438 596315 470
423548 305711 449
921008 796876 525
618524 671783 509
851121 670212 525
66100 842017 525
586798 369530 470
128231 896296 525
680304 525053 509
460813 44507 449
439454 165834 449
202130 524281 470
470361 309251 449
650264 535857 509
695762 234933 509
343120 697468 509
962376 252447 525
195799 736524 509
881730 82365 525
586353 580204 434
945412 44825 525
97301 784842 509
555979 344812 470
781000 915726 525
674213 898026 525
246132 223591 443
452125 118253 449
225697 985050 525
283211 498144 449
280708 92053 443
710328 93882 509
723289 566530 509
354604 600209 470
698213 204371 509
279501 469709 449
892115 385692 525
452542 652703 509
332998 381721 441
631393 440755 509
881673 352433 525
863645 641046 525
36698 541757 470
521615 245572 470
986946 319227 525
93089 515549 470
522214 431875 470
518297 892699 525
298877 5054 443
516088 520816 439
835661 356648 509
880060 832076 525
377556 744216 509
324904 867573 525
93223 762955 509
896172 544116 525
361138 348454 410
682567 556194 509
945513 374998 525
789308 681567 504
910708 608036 525
614830 806512 509
695083 112539 509
471153 826777 509
658456 844165 525
856856 333583 525
677584 342929 509
276302 843891 525
784899 413358 509
4397 482883 449
541499 129676 470
380864 395407 436
461529 696573 509
642806 874282 525
486546 462392 413
796255 284066 509
212368 340989 443
54636 975920 525
359992 21031 443
18917 184993 383
382062 290483 441
308286 548211 470
339542 773302 509
77784 932775 525
751958 953499 525
576859 429613 470
664703 524237 509
425004 138901 449
606018 889604 525
480950 127427 449
530796 984887 525
16262 508413 449
279215 282207 358
793649 995438 525
865502 784076 525
732915 373852 509
583367 510154 470
751762 363214 509
695754 172542 509
892417 360358 525
344407 179325 443
552638 6280 470
199801 361589 443
149990 736765 509
801684 880213 525
890612 585054 525
654956 944442 525
778466 88892 509
928090 226181 525
589403 959348 525
800195 962983 525
400311 962147 525
869102 125118 525
695467 198816 509
395551 666731 509
568124 158005 470
584182 151855 470
802114 880404 525
911565 902906 476
849465 400684 525
50999 398171 443
689595 693774 442
602109 956304 525
808182 76342 509
86226 890224 525
36087 902906 525
59025 830393 509
38441 828298 509
646025 975841 525
122798 287937 443
128828 109607 349
770612 480600 509
959305 994123 458
125557 7406 354
860980 740130 525
25087 210095 383
708362 221806 509
