844695 241039
625994 269492
833686 855652
349413 256404
887154 184671
942557 494918
152036 921296
325204 473068
257045 320014
504150 879509
42575 269173
238680 712009
37502 272684
833564 82675
999208 299825
282412 591147
766636 168637
321627 550868
636080 646118
712194 417270
118050 511767
34466 403500
235161 908183
509478 905841
464616 201361
823884 778568
842549 813725
49101 418860
126819 249515
704367 969456
97071 417456
960402 877280
465957 189151
770962 501888
391625 490434
989470 399615
85856 527213
350325 381249
390576 410844
6344 45313
344562 635801
950432 421645
570369 931707
884993 163278
997576 745054
918649 627159
264257 682932
158272 352871
643830 848031
675050 912936
866465 159061
951397 582977
548733 760369
442111 951272
463246 6145
47425 720682
969339 439910
637240 139231
721428 145388
168323 629389
966918 767478
827106 538999
478714 141020
806114 88262
391403 597680
976252 34727
282764 708439
382201 593223
246789 755672
548916 39745
116624 18331
804257 270778
280328 105620
529279 174447
815333 116625
435844 553216
182273 317797
373009 145370
822590 606809
720651 726753
755923 388066
556439 237953
238263 289883
932271 448551
199329 354875
90945 666459
782118 665869
710018 39431
401400 750591
291784 332909
534391 92107
173927 383187
674068 133444
751234 48010
137936 455941
956088 569445
74910 653535
834379 864627
706419 607983
723453 315936
826460 274201
545939 411470
674740 903639
239720 35263
180244 469371
153377 804080
929026 245132
645253 614390
982643 839268
691811 587735
96755 76808
588673 718804
477059 418053
435659 201614
575661 73255
147729 460591
724572 768204
756298 522852
921377 674975
313439 327667
860360 756989
534620 922294
761492 393298
600980 41970
753572 335989
186600 289993
459341 841748
266765 599206
44494 285436
653781 920154
1315 921202
195246 682487
678987 703544
184168 928761
749145 64374
382451 864063
95281 765923
107966 819761
97476 661776
771255 873805
816338 182808
236724 3494
905931 503847
829220 459198
674316 884474
428709 468830
220381 116387
472180 769391
26869 443829
353728 404146
28518 413991
55406 644386
62107 934951
365796 386775
113270 415411
986697 415549
390780 715454
254241 624490
933879 465427
500485 285292
143893 514669
430371 937884
698335 68783
268784 138061
406805 809633
514634 688958
54833 871898
618016 695478
590148 773674
42921 441262
930871 565998
697246 231181
415539 502473
820489 982211
749062 442119
167056 795517
871877 467191
380370 707054
654981 893442
705217 204577
38047 775243
919172 719305
363739 271432
92347 480761
488421 164782
190713 957083
659877 784266
664041 992230
349878 569070
554402 230226
840430 881546
694448 552347
725372 876244
630740 283231
116684 922963
620601 351501
612993 593419
129684 708205
967117 659833
240436 265340
