396125 893256
445611 388081
960379 360423
264955 162936
517481 827336
685619 718902
514115 324398
360608 585536
771117 824093
656266 356672
439716 795567
583782 914171
769706 8277
324147 451259
416277 228093
918034 933526
752093 440596
693786 811688
686095 596195
478714 696005
748821 720117
449758 251470
984584 631690
713385 265305
218212 847053
516241 810377
681210 353020
130644 847467
711096 145623
255440 436766
719355 862807
736133 108763
202309 256454
782650 720096
359976 940307
930660 571713
143735 195913
781635 499844
334820 970901
656974 831768
483360 858487
904313 888144
294345 907756
135176 8041
679072 928534
944192 910158
455225 422047
208690 15556
232687 531816
65267 740772
873916 476170
155655 617034
287658 199236
152955 371336
183050 445982
570809 373371
223809 345339
548199 476323
215867 389536
751040 698866
733289 285020
586646 805178
183884 432818
309262 191864
571840 544078
784896 481803
230560 123401
273466 985268
512031 756842
329975 784374
753087 715280
204287 260319
274319 184206
741480 22683
857711 961207
893858 340170
39309 906683
401285 155210
649191 441846
661915 109761
494623 327544
604766 412781
612749 482100
963233 672942
713165 403859
56455 736366
445522 111323
102997 917513
179689 426360
955909 621881
671304 986352
555825 228779
250934 360106
165875 662727
904645 555901
571223 289617
222105 446103
306200 861143
742149 187779
413337 74055
674658 55301
209001 650303
991212 571986
457817 824569
514260 588922
976916 122511
548422 490970
866398 904816
592982 366158
477954 834939
547505 675492
323755 977329
868709 148272
425553 857346
638272 320365
179582 397329
353125 454462
208478 369800
369544 590679
390935 656871
359011 529016
85011 322440
751924 593617
367115 704253
902409 670862
553554 907653
966396 332651
347014 945192
63271 886621
10225 686439
643852 47114
796685 932716
633772 883250
724399 173169
998719 928509
358952 519505
44441 373183
647323 182463
519500 573722
762386 4512
78173 328717
750301 953041
987387 576714
62015 59363
522092 423465
377177 46399
734448 646545
253754 608786
450499 319669
196700 101777
419947 733320
270123 154332
735832 378466
647617 994449
826220 681
76379 260597
724489 713519
666634 785105
556880 593292
922350 169934
720267 218685
562821 876145
707320 533373
556444 116228
666361 557396
704196 56114
980129 719535
557238 328357
221738 263418
996958 924222
300223 623342
205530 445363
455077 883919
983754 818234
526057 938703
748573 654769
27283 175992
296359 693040
209475 63830
954911 178742
635746 913304
334772 968416
473917 448945
600904 637969
553027 39903
136472 424773
400347 145183
422646 377648
13393 225733
308361 790041
594171 704407
686875 874086
300443 511
755100 9560
860797 506936
332471 837321
226775 718972
279059 442582
755745 751384
41217 997449
904400 896350
51020 87666
373961 453833
739552 637758
113462 427018
182458 2534
19988 565691
444351 93027
873498 145391
196655 126319
972524 58168
512139 896578
366548 688385
892150 283286
474186 492107
937939 292334
496057 210567
401548 545033
854472 479673
946926 510354
183979 508445
705677 288815
826998 315959
974005 276727
142796 261647
443228 539251
477623 167881
580047 459863
95346 266867
9680 33423
339030 472954
