530722 340585
698469 477741
103511 853035
769949 3200
805627 646709
139283 612157
481352 580478
77312 843635
457083 579249
888556 784065
876342 916112
809981 116394
508545 998999
786553 641022
142193 768370
731961 493721
245514 105229
529164 612750
317608 811616
625697 103753
372258 386924
598406 822867
573208 960435
301075 519627
814297 120293
247709 804471
551829 289987
174925 265716
242433 736915
968105 991909
157650 971712
961510 176786
354717 835445
977578 301740
15541 54806
205978 482026
123059 689622
396244 302598
646731 428570
315326 744274
921179 964339
492506 954048
447851 127218
762230 262316
904358 309577
475901 274130
253815 931790
953925 282328
880908 675138
507527 364447
429710 277382
674416 226325
866836 52699
139555 924595
347277 919773
807286 767301
537278 840073
198448 423064
214565 893577
453618 296030
351370 103094
141072 248796
418879 886544
925125 736908
428231 104584
541370 750290
707688 73962
500895 699855
901999 927391
887450 235774
247275 445293
469354 319019
115148 793570
444502 955849
132143 123055
393261 257129
416844 392625
712709 898311
947496 411709
330866 283476
675197 788057
121176 337998
930464 372103
269048 998664
36327 111756
124880 880075
924515 235135
990877 84562
847576 892601
136633 384149
255585 193100
120051 358604
234774 423628
64049 168448
11990 191001
243630 170167
16626 299564
933758 895173
858000 195140
867471 77287
642381 208676
876231 292666
282832 500396
37448 627946
956479 957173
871239 102315
432718 722202
124994 506499
256948 338951
114063 289301
631957 62002
595588 74677
59764 69446
522645 550636
185297 13558
705046 391631
921620 991152
511706 403434
335922 219997
445066 40408
23032 542934
6049 436654
93663 629827
153446 39368
675793 948755
89197 12292
314914 733235
623173 778862
981815 724795
420313 776729
396216 33861
599199 781674
811801 928942
264907 43359
59864 836205
857887 151848
993156 706396
508488 790270
998664 427044
65999 529842
13271 828037
456011 213128
962999 530804
618108 811305
362050 674246
381861 245484
693596 378536
839129 699889
867374 566004
246439 752799
558676 789862
614743 476364
2320 882208
237895 204875
741415 561030
117373 222133
641078 749651
375872 462261
454460 707517
409053 370430
706218 611912
927661 890408
885664 324108
177341 132530
862947 760753
161129 646921
236003 83918
391403 669747
176452 847927
407187 649972
807772 89541
764201 645337
538447 223951
752863 177224
758950 250716
372938 768030
679674 596204
510884 733756
100709 749357
819939 428480
292609 343295
554442 615012
987400 910698
464792 255500
940257 42359
469271 801687
286738 69004
506584 869558
325787 143660
966045 487997
709438 807612
586197 706482
908897 266144
257715 262890
364443 160421
214653 967649
644457 678566
834945 843462
345429 11843
866316 208448
625904 651513
345123 221617
680509 445422
736366 504045
634319 924512
64560 814913
447609 183095
370182 753022
762476 475836
230024 35403
393105 195119
82739 945844
101620 268604
977345 911999
103963 882123
799285 266139
951194 407022
884224 140770
280788 657108
336533 783752
995223 519074
167186 211931
1691 8176
732903 367849
692132 645741
840252 393601
596370 449515
704111 539411
92026 73530
703266 202007
127113 618475
331060 306421
36230 305283
121996 650835
413965 584305
645888 878024
388223 131471
264308 284000
324115 811320
14878 491837
841062 716080
648231 359323
83903 186932
991440 645359
496203 594018
55397 194741
188385 715789
