518 369 142
320 827 171
562 680 145
358 939 179
263 507 144
278 27 128
55 271 128
102 237 128
670 191 145
229 299 128
470 766 171
813 109 171
862 319 171
310 163 128
462 481 129
65 668 145
757 247 171
442 245 144
33 843 171
559 541 137
288 292 118
683 324 145
65 870 171
825 202 171
606 124 144
816 36 171
447 740 171
994 373 179
833 726 153
745 208 171
438 190 144
915 47 179
844 771 153
572 668 145
377 326 144
834 478 171
335 209 144
717 936 179
882 719 179
570 78 144
560 178 144
464 879 179
907 799 179
861 943 179
670 189 145
723 880 179
545 448 142
253 626 144
394 402 121
430 751 171
863 727 153
593 148 144
420 174 144
5 964 179
84 506 144
401 767 171
308 291 118
759 583 171
798 529 171
424 259 144
459 136 144
806 328 171
695 830 171
522 901 179
675 897 179
55 139 122
384 961 179
166 62 122
629 181 144
53 519 144
12 162 122
872 325 179
244 606 144
786 652 171
885 75 179
175 651 145
231 505 144
120 48 119
282 155 128
646 628 132
133 968 179
69 668 145
773 715 153
646 318 144
297 86 128
541 752 171
19 393 144
287 409 144
304 328 144
505 73 144
384 154 144
417 398 134
64 52 113
516 606 137
389 916 179
452 447 116
998 669 179
883 663 179
185 931 179
136 585 144
497 106 144
287 576 144
611 834 171
698 300 145
937 566 179
626 842 171
747 597 171
72 182 125
419 284 144
113 181 125
303 333 144
584 728 171
865 788 148
148 81 122
611 44 144
338 430 134
663 635 145
136 963 179
955 676 179
557 329 142
68 922 179
302 520 144
191 965 179
803 709 153
534 458 142
862 357 171
797 225 171
641 473 142
129 389 144
187 803 171
520 155 144
281 157 128
432 831 171
544 563 137
865 71 171
681 74 145
528 461 142
768 223 171
394 772 171
814 450 171
517 655 145
957 125 179
717 719 52
425 312 144
90 206 125
496 970 179
468 558 142
572 95 144
435 868 171
261 523 144
376 274 144
793 420 171
45 913 179
145 876 179
208 493 144
602 713 171
317 640 144
912 420 179
135 412 144
683 674 114
67 626 144
635 711 171
377 618 142
764 336 171
459 223 144
389 883 179
72 995 179
26 25 24
906 974 174
336 188 144
730 277 171
380 181 144
790 938 179
615 450 142
572 43 144
480 937 179
736 586 171
591 301 144
536 926 179
41 21 112
379 679 145
347 520 142
345 42 144
312 779 171
305 860 171
719 595 171
183 830 171
823 84 171
803 79 171
969 335 179
570 922 179
436 858 171
538 742 171
823 732 153
420 289 144
595 311 144
301 94 128
466 46 144
404 922 179
231 155 128
393 132 144
533 570 137
338 483 134
114 797 171
254 163 128
620 208 144
762 857 153
26 797 171
254 523 144
28 436 144
535 152 144
987 562 179
463 7 144
81 210 125
955 505 179
222 143 125
456 497 142
723 472 171
333 448 134
2 439 144
292 345 144
390 588 142
573 535 137
660 265 145
344 998 179
385 323 144
238 517 144
899 495 179
609 663 145
462 299 144
747 159 171
169 237 128
195 138 125
282 318 131
743 725 140
540 362 142
390 647 142
51 831 171
64 620 144
251 46 128
760 978 179
423 415 134
333 167 144
484 429 129
141 686 145
480 164 144
938 985 143
21 701 145
