92374 74199 351
8290 65752 340
4447 22967 279
11237 28050 308
81124 19402 351
11376 71764 340
58126 23479 340
52253 2169 324
80200 19283 351
73469 46335 340
2142 32007 308
66067 21442 340
3672 23767 282
17451 26349 282
87144 90301 333
48139 32731 324
96213 82818 333
4592 53180 340
91593 6512 351
87828 31456 351
56541 46207 340
96984 48325 351
12865 72504 340
21711 15287 279
82150 49083 351
597 46104 324
95752 2750 351
48086 32318 324
13634 84445 351
80302 92139 333
45895 4815 324
57979 35514 340
74366 78835 351
7122 5745 262
27580 8367 308
16760 88563 351
11010 20366 279
67282 15111 340
99790 53442 351
72800 3539 340
20039 73265 340
10178 53503 340
85059 98960 333
19181 85953 351
40967 11736 324
82504 69216 351
62972 96926 351
28638 40949 324
99183 65893 351
87770 31895 351
36559 91427 351
42260 63864 340
33357 37588 324
42501 91975 351
86936 64750 351
142 81468 351
47259 64529 340
35162 55289 340
80301 52170 351
81799 17146 351
20535 34744 311
91077 67272 351
33033 68099 340
52322 47302 314
5763 93817 351
79948 5846 351
91598 45148 351
4252 90451 351
42594 97838 351
1175 30773 308
42411 29445 324
71826 69720 325
26343 66534 340
79721 66750 351
56303 92805 351
96990 26844 351
21061 51095 324
25124 64874 340
83079 19242 351
21755 40056 324
96135 46698 351
97105 20454 351
29139 76142 340
42399 42274 226
82876 93181 333
31217 42987 324
25351 97037 351
11510 74884 340
83612 99464 333
96381 39863 351
26420 27937 308
34802 87851 351
70923 58509 335
47139 16209 324
20110 29630 308
36745 89574 351
60314 95365 351
27944 43840 324
63456 25186 340
46786 58129 340
75306 48537 340
51981 56185 340
15838 50094 324
11699 38074 324
87832 32844 351
46822 32979 324
75587 86287 351
54840 66557 335
712 77782 351
34301 45937 324
10385 69561 340
62426 55244 335
7481 62734 340
39712 64434 340
87002 45992 351
9506 34239 311
68955 33706 340
38852 72589 340
73861 82887 351
75597 83190 351
82260 69725 351
54000 25591 340
888 61999 340
28175 83578 351
35850 76963 340
86009 3194 351
6581 64122 340
34661 69827 340
21450 91757 351
24986 84967 351
30549 55723 340
88728 96498 333
46397 79402 351
8926 60526 340
73560 24119 340
18009 16816 279
70641 43367 340
88637 17652 351
20872 48869 324
45621 23413 324
30152 29882 272
98957 20219 351
83582 47728 351
13082 19706 279
44021 69115 340
53165 59040 322
61666 14498 340
42701 48879 314
57927 44698 340
37432 56132 340
5578 91272 351
95792 24739 351
86198 87740 333
99942 74311 351
70343 19211 340
81414 68738 351
2542 98640 351
81037 31913 351
67665 85528 351
94860 13925 351
54205 13066 340
57624 89748 351
63803 31680 340
21756 95733 351
80737 61790 351
69700 52768 335
89734 60842 351
32218 27436 285
44438 38944 306
13178 36660 324
17225 3243 276
28501 95260 351
11363 36168 324
45810 25700 324
76889 58836 335
67883 73701 325
93078 25309 351
2000 41116 324
48347 52241 309
93818 76625 351
44743 78844 351
8194 52069 324
95780 61587 351
34621 66866 340
46085 67325 340
84061 94725 333
93232 87280 333
34356 48397 324
18723 99005 351
64855 78595 351
83433 82553 320
13565 43632 324
41156 76548 340
73917 45403 340
81190 21603 351
46507 29382 324
11124 83289 351
29995 74404 340
43138 15138 324
88832 24856 351
91211 43345 351
2322 26636 308
45749 77917 351
51606 7492 324
89413 55556 351
54273 53245 322
41036 58731 340
12091 8812 268
93488 94983 315
72652 46371 340
83747 34558 351
16556 12384 276
91176 53141 351
84513 7189 351
84150 49656 351
46531 23733 324
56766 32637 340
73922 52533 335
64710 98846 351
55271 48846 340
65575 78264 351
57401 90603 351
16521 49282 324
32916 37667 324
95829 58746 351
57644 92619 351
79449 72611 351
77310 175 351
23008 99583 351
53752 3652 340
52725 48881 340
21175 25811 282
5651 36670 324
95436 32289 351
13715 64073 340
12974 13720 276
18929 1357 279
68096 37270 340
88428 36665 351
22595 31526 308
14299 3801 276
46840 61224 340
14486 34464 311
78205 76184 351
5711 65896 340
76180 80635 351
39639 76791 340
86867 30993 351
76477 60799 335
10925 45614 324
3584 35026 311
45293 34755 324
49367 31577 324
68961 32245 340
427 35038 311
11565 42087 324
49178 47524 296
3650 67322 340
6797 14215 276
94761 64147 351
88396 90551 315
84978 7273 351
17236 46072 324
74641 2791 340
37560 19148 324
27970 95476 351
83665 79225 320
46207 77652 351
70084 53419 335
55918 35264 340
4860 92632 351
1350 99260 351
91789 7948 351
61097 14280 340
24923 93240 351
89888 81627 333
19771 4260 279
50743 98911 351
49719 36778 314
85516 51184 351
20234 11930 279
61413 65959 330
31548 37331 324
59274 81599 351
6170 11093 268
8344 70645 340
15285 15534 240
42986 2307 324
90214 56475 351
97388 75339 351
15472 2149 276
25900 16678 282
34105 37932 324
84137 62906 351
78233 87495 338
39725 41855 306
44195 91816 351
3498 20512 279
87963 11567 351
90523 33439 351
