1 10 20
100 200 125
201 210 89
900 1000 174
114 476 144
665 977 179
281 522 144
163 661 145
315 882 179
41 893 179
554 812 171
374 775 171
439 953 179
851 869 148
57 861 171
479 757 171
275 766 171
122 524 144
280 901 179
737 746 140
445 965 179
95 143 122
161 333 144
403 958 179
80 772 171
713 994 179
148 233 128
594 689 145
118 561 144
521 756 171
834 937 179
30 490 144
276 686 145
72 223 125
799 815 135
654 754 171
744 947 179
951 982 143
866 885 179
162 404 144
268 441 144
146 938 179
497 597 137
116 183 125
909 964 174
571 964 179
361 966 179
557 580 119
784 943 179
33 168 122
826 980 179
347 865 171
467 706 171
993 996 94
286 932 179
646 880 179
31 296 128
250 422 144
884 925 148
282 903 179
733 820 153
114 387 144
506 678 145
172 311 128
857 960 179
689 932 179
616 846 171
10 895 179
835 889 179
654 666 145
455 791 171
838 847 86
454 493 142
487 600 142
432 454 116
93 869 171
766 828 153
887 918 148
798 930 179
166 839 171
609 655 145
365 487 142
362 689 145
871 925 179
33 594 144
389 659 145
182 910 179
642 846 171
240 498 144
154 889 179
133 760 171
191 830 171
434 580 142
413 949 179
398 894 179
824 896 179
654 710 171
835 836 135
253 292 123
843 899 179
240 740 171
172 626 144
59 446 144
482 660 145
670 695 127
196 228 120
691 745 171
86 849 171
137 276 128
268 699 145
737 843 153
778 801 122
136 491 144
784 971 179
673 946 179
903 919 130
383 982 179
641 650 145
697 874 179
853 968 179
840 846 42
620 853 171
536 574 137
975 996 143
881 975 174
913 979 174
86 449 144
91 352 144
47 325 131
534 621 137
125 811 171
674 930 179
32 909 179
22 97 119
820 988 179
195 533 144
745 989 179
268 900 179
887 967 174
773 857 153
630 734 171
211 939 179
51 815 171
242 786 171
223 774 171
619 930 179
190 370 144
735 740 140
837 974 179
322 381 144
74 196 125
464 692 145
703 959 179
512 683 145
335 493 142
393 693 145
790 850 135
855 866 148
70 433 144
91 723 171
573 709 171
900 963 174
551 836 171
51 139 122
793 865 148
459 816 171
271 821 171
444 817 171
56 934 179
27 604 144
160 176 125
937 974 174
72 611 144
556 904 179
98 719 171
678 951 179
921 995 174
739 832 153
883 984 174
184 642 144
439 815 171
769 938 179
733 741 140
776 915 179
681 817 171
519 693 145
234 370 144
455 494 142
572 730 171
779 940 179
638 678 145
845 960 179
389 632 142
544 896 179
479 928 179
268 337 144
860 914 179
497 658 145
985 990 99
285 704 171
656 831 171
105 866 171
340 392 126
