827881 182506
513657 691124
537157 222809
841204 163431
306865 183297
208263 394404
372704 623541
643511 819452
343526 80384
421207 968746
621716 640360
307729 399364
463048 309284
175337 852529
578141 239893
419428 151208
960153 333863
612260 955059
546591 519316
334410 470540
116238 298847
673437 748075
394284 200999
698603 121088
218630 514467
452000 414941
410344 13946
11529 999809
624475 588527
555840 702683
702434 793709
555952 125786
377455 872788
900843 70440
283421 978556
787845 735376
108310 107947
849350 832461
350225 719265
304146 969884
985035 54457
231810 931261
753649 352022
777975 893602
359986 118392
604268 180951
556811 786321
457609 902014
876958 838866
566317 460197
196282 141627
113857 536484
193084 101953
842058 311191
959819 689484
792827 360079
369733 633794
688878 377598
103334 396103
34579 869832
62936 261821
181690 91413
197829 983374
157834 484991
265787 666117
974516 316211
610605 237509
738745 295113
30491 363875
665778 25442
831719 186740
686192 124726
517842 814435
881068 137556
500862 671900
575888 923767
827454 827943
121035 526333
830501 663405
181012 358180
405338 127448
572672 683261
7994 789031
501862 829216
165132 37129
608597 949857
49301 416395
488776 658517
76164 678097
825199 399275
287230 120021
809660 251216
320565 238667
906969 186061
552216 135
804847 73965
546328 224532
72600 773406
985980 735220
338518 338816
467072 874551
550621 856729
369684 140157
341017 231526
72315 393208
841191 503014
795155 520557
406293 583292
416985 991026
502936 374572
45827 234751
130026 23377
133474 634889
289294 291416
531234 684261
30771 367310
516636 698458
12759 669210
246261 330444
706958 532287
385779 476706
457649 298583
260540 713006
585405 254521
393700 813000
8499 636997
247646 991430
688741 159644
564183 407704
472203 120601
336813 822310
908693 461059
818811 621244
622882 606486
737464 192898
4605 300052
459895 100411
849797 485743
944028 952305
66027 69088
61428 419207
209902 744509
808528 682504
728124 155190
244944 879188
974921 7531
452489 541952
558357 892910
926138 55352
456944 458511
465022 677863
824263 117704
977957 985304
35817 447424
555275 758377
863137 332515
448967 86000
562890 164817
849930 991582
285678 76138
95894 136098
939202 430756
652408 209027
913431 702747
350161 521803
203281 70126
519704 890045
85766 727833
469125 679079
657361 961072
415078 448336
311521 458554
214073 259590
426452 888298
977429 973082
197613 283143
719599 712196
777817 550803
472308 813313
568447 274992
325117 912947
623210 199594
968780 834253
842546 51244
685411 519213
380865 521134
496253 428314
143478 468553
776030 977955
298333 150316
745653 865688
911515 617435
329402 828160
778241 197485
85663 721454
185028 305014
461681 283226
112839 116790
650903 1324
308044 253726
827136 314504
4664 504631
72901 36800
363698 890606
31700 404882
93319 689991
91173 928860
901324 477085
912911 934780
628683 236706
352666 353703
175299 276711
595402 641152
841359 622095
444368 268491
256347 15905
465466 724494
450470 826743
974982 818370
275099 584288
520734 685175
799920 175395
893799 487247
656649 413631
450592 702501
795625 638841
807389 44074
588928 42049
430407 44254
55818 676947
909922 864579
861620 477227
788559 181934
993652 605081
261495 17760
460435 612517
935644 295672
769217 151996
401350 226210
298633 789922
146395 687561
488299 273769
128234 86756
11276 968093
122566 241251
490464 865581
531677 815723
892780 861666
360404 875557
527362 159441
371914 410562
213855 275110
503758 568028
349993 802262
360432 90100
737107 891477
56974 3294
727748 90122
987483 692527
928581 274874
934497 487006
157332 145841
200721 496059
816470 532963
762577 29908
25878 190421
648029 275971
739049 887582
318175 262682
372197 485046
538312 746064
851196 73813
431403 949319
256987 410143
857427 29676
174808 396537
959411 854356
704820 63848
208534 602504
263162 399725
397896 467063
401456 401156
705112 957736
799308 726482
462819 362025
917142 67876
136896 957745
478147 745856
577665 273373
744982 589400
