227291 284794 443
909165 465232 525
910171 987651 507
910659 10224 525
210676 505454 449
447586 935188 525
587968 280605 470
925011 624027 525
462689 38351 449
778847 90098 509
864474 723210 525
701904 58305 509
445998 946200 525
341907 107637 443
409723 103333 443
961484 461881 525
682544 907283 525
854149 606609 525
599484 152065 470
583451 206729 470
469059 225550 449
467514 632029 509
425967 762439 509
164580 86874 383
15040 251061 443
692971 969733 525
266171 897105 525
732851 876038 525
797206 503273 509
123800 896630 525
732403 574446 509
593021 656458 509
944826 219285 525
544779 121599 470
80465 771877 509
782330 970948 525
972114 661074 525
771396 41814 509
866340 834234 525
713835 81857 509
70340 323130 443
986903 631998 525
23271 534073 470
939209 842778 476
727548 297374 509
184023 650547 509
417237 754064 509
188551 507726 449
325305 938617 525
749063 232942 509
606710 991248 525
435164 825305 509
301226 288908 371
147463 475759 449
248598 515049 470
303625 77676 443
539791 347074 470
755619 961587 525
642041 140777 509
599659 57989 470
824419 605179 509
838408 132461 525
836643 275514 509
427212 388403 449
965296 881779 507
447027 28290 449
88394 576675 470
104539 166639 383
847685 22272 525
984884 717466 525
526583 957109 525
410463 572512 470
997220 652458 525
44060 117324 354
793192 27976 509
681562 952206 525
704247 461638 509
780049 192973 509
123354 609243 470
451145 367406 449
611618 456772 470
402701 939908 525
735277 547517 509
765410 537904 509
361521 913779 525
613500 602501 403
289492 142680 443
831514 929292 525
260442 644837 509
824814 572409 509
235944 573237 470
255897 290335 407
582707 101016 470
676296 464254 509
426403 41781 449
25428 704334 509
880037 28240 525
282024 552957 470
958313 21440 525
649995 961553 525
393348 9692 443
950850 527445 525
452345 626785 509
607357 865158 525
790098 250784 509
104178 760317 509
407470 469606 449
108955 576881 470
411737 251018 449
752773 184569 509
295141 883267 525
119773 912106 525
611023 772684 509
280788 734124 509
6959 965173 525
106597 713084 509
721498 259556 509
734318 241381 509
565601 20699 470
770965 592267 509
782720 846452 525
246109 769707 509
263816 441816 449
230037 148077 386
178346 991532 525
9478 403898 443
572340 679168 509
75200 869044 525
254971 133806 443
320989 61574 443
361539 694269 509
261875 982739 525
314370 697846 509
452778 556930 470
515258 712651 509
236232 954084 525
890407 722734 525
305629 188130 443
21944 500728 449
544242 641988 509
601874 381760 470
244369 446897 449
35608 654459 509
351870 250770 441
156715 244920 443
741927 848421 525
252426 732331 509
655668 775667 504
634441 117471 509
344071 855870 525
72376 771126 509
118862 189546 383
149280 421839 449
343443 20767 443
919734 998620 507
391515 516405 470
286354 112526 443
285340 168742 443
799861 222382 509
350537 173264 443
133618 87825 354
4246 300792 443
470393 674004 509
592783 377924 470
664762 806935 504
633312 34143 509
746416 308799 509
424695 490090 444
255425 424763 449
473991 622576 470
483906 42856 449
292463 576799 470
875256 658643 525
670971 766712 504
619121 464077 470
723318 286635 509
69794 744676 509
742772 931960 525
298897 793488 509
681866 6600 509
899899 812201 525
196767 781411 509
960740 723065 525
914043 272238 525
74808 756463 509
307541 166541 443
664985 989530 525
196310 65602 383
940073 454384 525
114800 338636 443
600351 11174 470
142008 785815 509
918553 17325 525
470426 723956 509
265239 136316 443
919599 260159 525
132988 758702 509
380450 103528 443
265409 350811 441
424557 981593 525
21777 388041 443
366552 919103 525
298762 878485 525
786913 347724 509
300075 741281 509
599572 628574 509
462945 110396 449
822571 194411 509
953572 319391 525
338537 494371 449
979498 682279 525
666710 728964 504
617439 196934 470
448225 385975 449
306872 588124 470
317805 192830 443
343543 497315 449
274657 558974 470
402146 225553 443
133137 119273 344
277714 432592 449
797530 338379 509
215876 627823 509
49882 237131 443
38423 394281 443
727120 257717 509
362522 190162 443
692086 758998 504
313814 677563 509
455990 442735 387
590285 923224 525
544848 990287 525
211984 230553 386
525948 419628 470
