487969 398639
488202 396214
580550 33405
683032 414301
372167 907131
822980 614496
297010 797127
849723 484179
892308 812048
426376 438392
797552 901675
181961 876099
658349 316980
939651 350993
250208 986791
523448 173057
693504 446312
565076 521591
954829 453209
401604 212159
605137 637365
411291 74583
186537 399775
919605 561333
869964 258393
610201 348272
368598 941013
36816 583526
145854 615742
242882 922980
557813 613303
559862 357710
257116 917229
489476 676715
743108 467229
590592 900023
971599 640563
431016 292124
90045 496555
119410 203433
818842 254991
511873 233013
26735 693900
251243 678765
533410 118655
110414 480038
754392 84480
934768 99650
705656 810599
899819 268721
603059 785861
989508 230988
615734 274847
299450 517821
691060 70389
376269 511565
21433 708068
665754 702709
358729 936409
598323 457493
687017 679779
584334 126893
540225 970143
962493 361873
552952 146841
841645 738438
343552 300420
754031 782388
921766 774853
503014 556738
210578 153416
409875 670523
311231 342495
406741 253848
778595 236411
941292 555210
708832 21402
125886 601021
326873 155020
698346 313602
384809 105818
223783 992258
930178 68491
668085 292999
473273 210380
949158 435
443537 748845
337846 885775
493282 945416
352999 450416
574273 487854
921018 654315
357490 639067
629443 640856
232183 852692
642599 590152
343238 825246
488042 744607
882710 290608
780308 833414
696367 768350
850933 249327
564190 652339
621363 372945
105444 788827
930729 164511
434134 946956
61302 695229
225502 99288
205056 585315
655878 389112
566562 304736
15245 751176
99107 744732
555772 197376
72156 74927
341038 187242
404985 538807
185556 167398
785123 843857
548455 688651
914481 291310
833573 828849
818910 287221
128545 57149
711124 864380
713565 244741
622734 158908
573110 342837
986120 480928
418349 616526
294493 426004
133280 664068
484752 983774
92190 813119
62936 926078
213481 512520
796786 797902
877763 570523
416327 246296
791124 112041
78895 977772
613576 532861
201887 174998
500665 52174
569231 100750
976131 508567
182577 59114
448592 420467
120930 973155
886503 265538
514082 909478
52493 6633
888896 495438
17889 907337
679319 602265
497561 383277
812681 284950
127777 802595
638825 725208
419687 945122
285558 567332
804531 668898
44888 32316
961587 754989
803443 273154
258499 823902
975973 408650
529969 929296
698759 872702
745659 878122
619774 991453
374646 439520
551871 359059
59573 261786
395808 230986
724999 428023
358449 400807
830025 550657
806469 472440
806683 461258
599418 681370
2399 781683
201228 456563
33565 895254
844828 285844
706716 151148
58881 217348
405250 95985
494569 263180
163980 47719
124462 294842
697655 820600
692210 356922
234970 661488
342906 631216
166115 198060
313264 538002
130262 93554
967111 847516
966927 621888
822262 876009
912039 160643
832705 646837
830588 766194
584057 571783
257050 69168
351071 436569
636851 655781
193935 216643
390210 45234
288409 131183
268476 807227
911900 784557
907180 810306
715097 766760
106426 450092
810278 948824
768826 731619
471083 556334
76359 710438
456040 642409
855902 641754
193743 440926
729401 381607
279428 485877
900059 889120
617517 990923
226596 332607
34533 920604
876057 884784
770457 306155
657259 681178
351409 153850
208265 183831
70357 197697
961775 208658
382148 472713
465090 82302
642848 776982
588211 44742
403345 638486
815026 949033
587893 448041
237483 288636
186320 282759
478127 456896
864439 598040
531743 743053
62635 957765
931884 555182
528152 26556
558763 454003
591947 65657
651416 223592
560118 206179
37789 786584
17710 156076
892613 171884
83235 794929
649802 919560
676276 781626
366007 139795
37126 780409
330779 824917
605637 248377
905979 774165
329501 592544
