487969 398639 449
488202 396214 449
580550 33405 470
683032 414301 509
372167 907131 525
822980 614496 509
297010 797127 509
849723 484179 525
892308 812048 525
426376 438392 387
797552 901675 525
181961 876099 525
658349 316980 509
939651 350993 525
250208 986791 525
523448 173057 470
693504 446312 509
565076 521591 452
954829 453209 525
401604 212159 443
605137 637365 509
411291 74583 449
186537 399775 443
919605 561333 525
869964 258393 525
610201 348272 470
368598 941013 525
36816 583526 470
145854 615742 470
242882 922980 525
557813 613303 434
559862 357710 470
257116 917229 525
489476 676715 509
743108 467229 509
590592 900023 525
971599 640563 525
431016 292124 449
90045 496555 449
119410 203433 383
818842 254991 509
511873 233013 449
26735 693900 509
251243 678765 509
533410 118655 470
110414 480038 449
754392 84480 509
934768 99650 525
705656 810599 468
899819 268721 525
603059 785861 509
989508 230988 525
615734 274847 470
299450 517821 470
691060 70389 509
376269 511565 449
21433 708068 509
665754 702709 442
358729 936409 525
598323 457493 470
687017 679779 398
584334 126893 470
540225 970143 525
962493 361873 525
552952 146841 470
841645 738438 525
343552 300420 384
754031 782388 468
921766 774853 525
503014 556738 470
210578 153416 383
409875 670523 509
311231 342495 384
406741 253848 441
778595 236411 509
941292 555210 525
708832 21402 509
125886 601021 470
326873 155020 443
698346 313602 509
384809 105818 443
223783 992258 525
930178 68491 525
668085 292999 509
473273 210380 449
949158 435 525
443537 748845 509
337846 885775 525
493282 945416 525
352999 450416 449
574273 487854 470
921018 654315 525
357490 639067 509
629443 640856 416
232183 852692 525
642599 590152 509
343238 825246 509
488042 744607 509
882710 290608 525
780308 833414 468
696367 768350 504
850933 249327 525
564190 652339 509
621363 372945 470
105444 788827 509
930729 164511 525
434134 946956 525
61302 695229 509
225502 99288 386
205056 585315 470
655878 389112 509
566562 304736 470
15245 751176 509
99107 744732 509
555772 197376 470
72156 74927 325
341038 187242 443
404985 538807 470
185556 167398 365
785123 843857 525
548455 688651 509
914481 291310 525
833573 828849 419
818910 287221 509
128545 57149 354
711124 864380 525
713565 244741 509
622734 158908 470
573110 342837 470
986120 480928 525
418349 616526 470
294493 426004 449
133280 664068 509
484752 983774 525
92190 813119 509
62936 926078 525
213481 512520 470
796786 797902 375
877763 570523 525
416327 246296 449
791124 112041 509
78895 977772 525
613576 532861 452
201887 174998 365
500665 52174 449
569231 100750 470
976131 508567 525
182577 59114 383
448592 420467 418
120930 973155 525
886503 265538 525
514082 909478 525
52493 6633 324
888896 495438 525
17889 907337 525
679319 602265 509
497561 383277 449
812681 284950 509
127777 802595 509
638825 725208 504
419687 945122 525
285558 567332 470
804531 668898 504
44888 32316 324
961587 754989 525
803443 273154 509
258499 823902 509
975973 408650 525
529969 929296 525
698759 872702 525
745659 878122 525
619774 991453 525
374646 439520 449
551871 359059 470
59573 261786 443
395808 230986 441
724999 428023 509
358449 400807 436
830025 550657 509
806469 472440 509
806683 461258 509
599418 681370 509
2399 781683 509
201228 456563 449
33565 895254 525
844828 285844 525
706716 151148 509
58881 217348 386
405250 95985 443
494569 263180 449
163980 47719 383
124462 294842 443
697655 820600 504
692210 356922 509
234970 661488 509
342906 631216 509
166115 198060 365
313264 538002 470
130262 93554 354
967111 847516 507
966927 621888 525
822262 876009 525
912039 160643 525
832705 646837 504
830588 766194 468
584057 571783 434
257050 69168 443
351071 436569 449
636851 655781 416
193935 216643 386
390210 45234 443
288409 131183 443
268476 807227 509
911900 784557 525
907180 810306 525
715097 766760 424
106426 450092 449
810278 948824 525
768826 731619 468
471083 556334 470
76359 710438 509
456040 642409 509
855902 641754 525
193743 440926 449
729401 381607 509
279428 485877 449
900059 889120 370
617517 990923 525
226596 332607 443
34533 920604 525
876057 884784 401
770457 306155 509
657259 681178 442
351409 153850 443
208265 183831 373
70357 197697 383
961775 208658 525
382148 472713 449
465090 82302 449
642848 776982 504
588211 44742 470
403345 638486 509
815026 949033 525
587893 448041 470
237483 288636 407
186320 282759 443
478127 456896 444
864439 598040 525
531743 743053 509
62635 957765 525
931884 555182 525
528152 26556 470
558763 454003 470
591947 65657 470
651416 223592 509
560118 206179 470
37789 786584 509
17710 156076 375
892613 171884 525
83235 794929 509
649802 919560 525
676276 781626 504
366007 139795 443
37126 780409 509
330779 824917 509
605637 248377 470
905979 774165 525
329501 592544 470
