30227 9040 308
3195 32071 308
81057 55131 351
77669 24169 351
69185 37782 340
17464 58616 340
74811 39947 340
20177 63218 340
61999 2102 340
73626 40051 340
67297 65820 268
44347 92126 351
37396 48396 314
1133 40652 324
9630 11660 268
13184 55696 340
55210 7526 340
68574 34005 340
6623 89934 351
60746 83570 351
78697 29332 351
7396 16435 276
92021 93685 315
48630 4629 324
11671 6553 268
98886 30035 351
5078 35592 311
15633 94552 351
97482 35743 351
97337 67961 351
62823 45375 340
76976 98962 351
19675 51497 324
90153 45463 351
38127 89287 351
66312 85668 351
43690 92171 351
71285 50181 340
28351 14592 308
77137 34758 351
92923 6691 351
45798 57768 340
24196 26050 264
18924 73590 340
90302 79362 333
91600 90974 333
74654 20396 340
59676 25574 340
17200 73863 340
41448 78448 351
20466 63939 340
90403 78782 338
41893 71816 340
48905 97468 351
29957 81182 351
4686 4660 153
61235 77632 351
9611 3460 262
91399 48738 351
98994 56631 351
32684 43441 324
22262 87218 351
5265 74920 340
41307 6995 324
72669 27361 340
11295 65002 340
35083 36754 324
20944 22002 269
84302 984 351
73095 33289 340
51417 88559 351
56949 27719 340
20651 1376 279
15767 98558 351
65031 4628 340
52734 54265 322
38662 61696 340
92954 7728 351
68278 75260 325
9451 33166 308
48562 9851 324
71099 37589 340
83915 11246 351
38810 93480 351
74385 59030 335
18978 58461 340
20434 64235 340
36131 6640 324
32529 8356 308
55204 93627 351
26795 3821 308
75717 43710 340
68349 61603 330
38609 81085 351
47163 13723 324
62619 71246 330
61498 64148 330
47393 64522 340
29131 8706 308
83271 18559 351
50634 40117 314
1212 40093 324
9118 98318 351
20821 45604 324
60075 20817 340
6640 16038 276
83537 36555 351
24117 70847 340
29783 68416 340
94265 2771 351
3347 27588 308
17819 81713 351
74790 31257 340
22736 13270 279
34586 1980 311
57445 21851 340
84692 98033 333
87096 15178 351
33921 41178 324
30938 76865 340
94162 47849 351
43271 50122 314
17201 63954 340
56738 76651 335
77061 71481 351
27147 19910 308
64202 71291 312
22186 75036 340
1502 75497 340
54246 94311 351
94688 62746 351
95385 48410 351
42173 84751 351
86053 6924 351
5075 96514 351
64903 69088 312
30596 32762 285
39417 8141 324
89588 3604 351
57111 25345 340
71361 37173 340
65754 44896 340
34932 28660 311
18010 14321 279
19238 76028 340
91050 35722 351
30745 18847 308
81174 58840 351
92068 12805 351
4814 94671 351
19598 12931 279
73277 74899 325
81690 38952 351
96993 34433 351
12900 33631 308
4841 87580 351
54692 92589 351
79706 1600 351
32132 45487 324
96011 36585 351
40449 58584 340
21481 2193 279
20734 51462 324
35651 39178 324
55277 88126 351
33809 23299 308
82879 34056 351
89208 10300 351
56843 63477 335
88825 53201 351
3024 31781 308
83362 47446 351
20199 57508 340
29569 37310 324
75639 22557 340
52939 85683 351
94823 38308 351
3364 43861 324
39901 13 324
83724 65632 351
59648 69173 335
5410 43387 324
42795 24204 324
40000 63768 340
26088 25206 246
27985 71085 340
54295 29080 340
37088 35604 324
95102 970 351
78765 82529 338
56407 1449 340
40832 10935 324
78742 13388 351
55490 27743 340
85223 2034 351
513 99533 351
14387 41830 324
88344 34417 351
44722 98397 351
39437 4645 324
11460 48342 324
50356 8273 324
9607 81627 351
17878 17480 279
79055 50822 351
86491 21930 351
62377 40023 340
56237 46264 340
22480 17007 279
94511 49503 351
14472 41290 324
39118 75990 340
51306 23040 324
66850 94204 351
50750 20214 324
51117 53155 340
338 76000 340
64967 14572 340
7044 80861 351
97803 98308 297
58764 42883 340
38358 45058 306
40589 53823 340
69673 99141 351
33255 55458 340
67262 5761 340
62241 16644 340
25557 48551 324
65829 61997 330
67220 67447 237
6682 41083 324
10755 85651 351
72426 86087 351
9326 98184 351
47503 29865 324
37681 81857 351
65131 42994 340
34946 83030 351
39286 52490 314
28088 97990 351
51701 81525 351
58654 36217 340
7301 72782 340
55637 50032 340
27619 23557 308
86713 15446 351
2029 26689 308
18606 67253 340
7032 48006 324
8648 64485 340
